%YAML 1.1
%TAG !u! tag:unity3d.com,2011:
--- !u!1045 &1
EditorBuildSettings:
  m_ObjectHideFlags: 0
  serializedVersion: 2
  m_Scenes:
  - enabled: 1
    path: Assets/TitleScreen.unity
    guid: d7cc8a9fc7d68e949bb3eca350c95c05
  - enabled: 1
    path: Assets/TopTrumps.unity
    guid: 272312b6426664df8b3897536cd7905d
  - enabled: 1
    path: Assets/GameOver.unity
    guid: 560a1085442597047bd7ad4471405583
  - enabled: 1
    path: Assets/Instructions.unity
    guid: 7a9648b6e6b71df4eb46dfe42d13227f
  - enabled: 1
    path: Assets/Credits.unity
    guid: d8b6f22243c71574eb2270d261f4fd12
  m_configObjects: {}
